Session 8: Communicating Results
…
How does the data we used before look like?

tmp_data

## # A tibble: 3,303 x 3
##    ideology state_code region   
##       <dbl> <chr>      <fct>    
##  1        5 AR         South    
##  2        4 OH         Midwest  
##  3        6 NJ         Northeast
##  4        5 NJ         Northeast
##  5        4 TX         South    
##  6        3 MS         South    
##  7        2 NC         South    
##  8        4 CT         Northeast
##  9        2 KS         Midwest  
## 10        2 DC         South    
## # … with 3,293 more rows
…
tmp_data

## # A tibble: 3,303 x 4
##    ideology state_code region    state               
##       <dbl> <chr>      <fct>     <chr>               
##  1        5 AR         South     Arkansas            
##  2        4 OH         Midwest   Ohio                
##  3        6 NJ         Northeast New Jersey          
##  4        5 NJ         Northeast New Jersey          
##  5        4 TX         South     Texas               
##  6        3 MS         South     Mississippi         
##  7        2 NC         South     North Carolina      
##  8        4 CT         Northeast Connecticut         
##  9        2 KS         Midwest   Kansas              
## 10        2 DC         South     District of Columbia
## # … with 3,293 more rows

The state in the us_map data is written with a lowercase. We need those columns to match!

tmp_data <- tmp_data %>% mutate(state = tolower(state))
tmp_data

## # A tibble: 3,303 x 4
##    ideology state_code region    state               
##       <dbl> <chr>      <fct>     <chr>               
##  1        5 AR         South     arkansas            
##  2        4 OH         Midwest   ohio                
##  3        6 NJ         Northeast new jersey          
##  4        5 NJ         Northeast new jersey          
##  5        4 TX         South     texas               
##  6        3 MS         South     mississippi         
##  7        2 NC         South     north carolina      
##  8        4 CT         Northeast connecticut         
##  9        2 KS         Midwest   kansas              
## 10        2 DC         South     district of columbia
## # … with 3,293 more rows

Let’s get the average ideology by state

state_idl <- tmp_data %>% group_by(state) %>% summarize(ideology = mean(ideology))
state_idl

## # A tibble: 51 x 2
##    state                ideology
##  * <chr>                   <dbl>
##  1 alabama                  5.27
##  2 alaska                   4.67
##  3 arizona                  4.22
##  4 arkansas                 4.58
##  5 california               3.76
##  6 colorado                 3.96
##  7 connecticut              3.94
##  8 delaware                 3.38
##  9 district of columbia     2.6 
## 10 florida                  4.36
## # … with 41 more rows
…
